<svg xmlns="http://www.w3.org/2000/svg" width="36" height="27" viewBox="0 0 36 27">
    <g fill="#6f32f2" fill-rule="nonzero" stroke="#6f32f2" stroke-width=".2" transform="translate(1 1)">
        <path d="M33.84 6.906L27.248.366a.546.546 0 0 0-.768 0l-3.297 3.27a.536.536 0 0 0 0 .761l.329.327-.756.75c-.49.486-1.252.618-1.895.33a4.75 4.75 0 0 0-1.936-.415c-.79 0-1.56.196-2.246.568a3.684 3.684 0 0 0-2.125.113c-.641.23-1.328.088-1.793-.374L11.403 4.35l.161-.16a.536.536 0 0 0 0-.762L8.267.158a.546.546 0 0 0-.768 0L.16 7.438a.536.536 0 0 0 0 .762l3.297 3.27a.545.545 0 0 0 .768 0l.197-.195.957.95c.241.24.401.538.463.865a8.436 8.436 0 0 0 2.362 4.447l.18.18a1.916 1.916 0 0 0-.537 1.333c0 .517.204 1.004.573 1.37a1.956 1.956 0 0 0 1.48.565 1.926 1.926 0 0 0 .568 1.467c.37.367.86.568 1.382.568h.044c-.011.51.179 1.024.57 1.412.37.366.86.568 1.383.568a1.95 1.95 0 0 0 1.47-.663c.193.067.396.102.602.102a1.818 1.818 0 0 0 1.703-1.159l.056.056c.356.353.823.529 1.29.529a1.827 1.827 0 0 0 1.712-1.18c.319.23.696.345 1.073.345a1.83 1.83 0 0 0 1.292-.53 1.792 1.792 0 0 0 .483-1.709 1.816 1.816 0 0 0 1.458-1.774c0-.381-.118-.744-.337-1.048l.436-.432a8.433 8.433 0 0 0 2.372-4.503c.052-.287.196-.554.415-.771l1.62-1.607.285.282a.544.544 0 0 0 .768 0l3.297-3.27a.536.536 0 0 0 0-.762zm-30 3.422L1.31 7.819 7.884 1.3l2.53 2.51-6.573 6.518zm6.575 9.33a.875.875 0 0 1-1.228 0 .852.852 0 0 1 0-1.217.87.87 0 0 1 .614-.252.87.87 0 0 1 .614.252.857.857 0 0 1 0 1.218zm2.048 2.033a.865.865 0 0 1-.614.252.866.866 0 0 1-.614-.252.857.857 0 0 1 0-1.218.87.87 0 0 1 .614-.252.87.87 0 0 1 .614.252.857.857 0 0 1 0 1.218zm1.996 1.98a.866.866 0 0 1-.614.252.866.866 0 0 1-.614-.252.857.857 0 0 1 0-1.219.87.87 0 0 1 .614-.251.87.87 0 0 1 .614.251.857.857 0 0 1 0 1.219zm9.223-4.135a.737.737 0 0 1-.522.215.737.737 0 0 1-.523-.215l-5.268-5.224a.546.546 0 0 0-.768 0 .536.536 0 0 0 0 .761l5.675 5.628c.14.139.216.323.216.519s-.077.38-.216.519a.745.745 0 0 1-1.046 0l-.958-.95-.016-.016-.005-.005-4.4-4.365a.546.546 0 0 0-.768 0 .535.535 0 0 0 0 .762l4.414 4.379a.726.726 0 0 1-.007 1.03.744.744 0 0 1-1.045 0l-4.787-4.748a.546.546 0 0 0-.768 0 .535.535 0 0 0 0 .761l3.548 3.52.003.003a.726.726 0 0 1 0 1.037.736.736 0 0 1-.664.201 1.927 1.927 0 0 0-.55-1.657 1.95 1.95 0 0 0-1.382-.568h-.043a1.924 1.924 0 0 0-.57-1.412 1.95 1.95 0 0 0-1.48-.566 1.925 1.925 0 0 0-.57-1.466 1.965 1.965 0 0 0-1.822-.517l-.39-.386a7.365 7.365 0 0 1-2.062-3.884 2.713 2.713 0 0 0-.762-1.43l-.957-.949 5.446-5.401 1.357 1.346a2.78 2.78 0 0 0 1.96.794c.325 0 .655-.055.972-.17.154-.055.313-.095.474-.12l-3.362 3.335c-.411.408-.638.95-.638 1.527s.227 1.12.638 1.528a2.18 2.18 0 0 0 1.54.631c.558 0 1.115-.21 1.54-.631l1.689-1.675.457.453.02.02.017.017.001.001.015.015 6.368 6.315c.14.139.216.323.216.519s-.077.38-.217.519zm3.42-8.035a2.52 2.52 0 0 0-.715 1.342 7.363 7.363 0 0 1-2.071 3.932l-.417.414-3.436-3.407a2.79 2.79 0 0 0 1.283-.195.537.537 0 0 0 .298-.702.544.544 0 0 0-.709-.295c-1.397.567-3.073-.996-3.26-1.176a.396.396 0 0 0-.009-.009l-.019-.02-.017-.016-.457-.454.518-.514a.535.535 0 0 0 0-.762.546.546 0 0 0-.768 0l-.901.894-.001.001-.001.001-2.072 2.055a1.1 1.1 0 0 1-1.544 0 1.071 1.071 0 0 1-.32-.766c0-.289.114-.56.32-.765L16.38 7.51a3.612 3.612 0 0 1 4.032-.727 2.806 2.806 0 0 0 3.11-.549l.757-.75 4.444 4.409-1.62 1.607zm3.058-1.705l-5.826-5.78 2.529-2.508 5.826 5.779-2.53 2.509z"/>
        <circle cx="30.5" cy="7.5" r="1"/>
        <circle cx="3.5" cy="8.5" r="1"/>
    </g>
</svg>
