<svg xmlns="http://www.w3.org/2000/svg" width="30" height="29" viewBox="0 0 30 29">
    <g fill="none" fill-rule="nonzero" stroke="#6f32f2">
        <path stroke-width="1.4" d="M16.92 14.5V9.932c0-3.723-3.006-6.752-6.702-6.752S3.515 6.209 3.515 9.932V14.5a2.954 2.954 0 0 0-2.14 2.833v7.944c0 1.629 1.318 2.956 2.935 2.956h11.81a2.95 2.95 0 0 0 2.94-2.956v-7.944c0-1.35-.912-2.48-2.14-2.833zm-5.085 8.767v2.06a.56.56 0 0 1-.556.56H9.156a.56.56 0 0 1-.556-.56v-2.06a2.544 2.544 0 0 1-.917-1.965 2.546 2.546 0 0 1 2.535-2.553c1.4 0 2.534 1.148 2.534 2.553 0 .772-.339 1.483-.917 1.965zm2.974-9.89h-9v-3.53c0-2.466 2.017-4.47 4.5-4.47 2.482 0 4.5 2.004 4.5 4.47v3.53z"/>
        <path fill="#6f32f2" stroke-width=".1" d="M19.61.233a.55.55 0 0 0 0 1.1c4.778 0 8.665 3.887 8.665 8.665a.55.55 0 0 0 1.1 0c0-5.385-4.38-9.765-9.765-9.765z"/>
        <path fill="#6f32f2" stroke-width=".1" d="M19.597 3.917a.537.537 0 0 0 0 1.074 5.026 5.026 0 0 1 5.02 5.02.537.537 0 0 0 1.074 0 6.101 6.101 0 0 0-6.094-6.094z"/>
        <path fill="#6f32f2" stroke-width=".1" d="M19.68 6.864a.62.62 0 0 0 0 1.24c1.006 0 1.825.818 1.825 1.825a.62.62 0 0 0 1.239 0 3.068 3.068 0 0 0-3.065-3.065z"/>
    </g>
</svg>
